est 15000 cpu 0.000000 wall 0
dim 15000 cpu 7086.595617 wall 8096
	Command being timed: "./teste_lista_time"
	User time (seconds): 7086.66
	System time (seconds): 0.34
	Percent of CPU this job got: 87%
	Elapsed (wall clock) time (h:mm:ss or m:ss): 2:14:56
	Average shared text size (kbytes): 0
	Average unshared data size (kbytes): 0
	Average stack size (kbytes): 0
	Average total size (kbytes): 0
	Maximum resident set size (kbytes): 3268
	Average resident set size (kbytes): 0
	Major (requiring I/O) page faults: 0
	Minor (reclaiming a frame) page faults: 435
	Voluntary context switches: 2
	Involuntary context switches: 92882
	Swaps: 0
	File system inputs: 0
	File system outputs: 0
	Socket messages sent: 0
	Socket messages received: 0
	Signals delivered: 0
	Page size (bytes): 4096
	Exit status: 0
